{
    "background": "#1d2021",
    "forground": "#ebdbb2",
    "black": "#282828",
    "darkgrey": "#928374",
    "darkred": "#cc241d",
    "darkgreen": "#98971a",
    "darkyellow": "#d79921",
    "darkblue": "#458588",
    "darkmagenta": "#b16286",
    "darkcyan": "#689d6a",
    "white": "#ebdbb2",
    "grey": "#a89984",
    "red": "#fb4934",
    "green": "#b8bb26",
    "yellow": "#fabd2f",
    "blue": "#83a598",
    "magenta": "#d3869b",
    "cyan": "#8ec07c"
}
